{
  "project_info": {
    "project_number": "1012556284511",
    "firebase_url": "https://mytickets-acff9-default-rtdb.europe-west1.firebasedatabase.app",
    "project_id": "mytickets-acff9",
    "storage_bucket": "mytickets-acff9.appspot.com"
  },
  "client": [
    {
      "client_info": {
        "mobilesdk_app_id": "1:1012556284511:android:b425b075cd80117921d1ea",
        "android_client_info": {
          "package_name": "com.example.menudrawer"
        }
      },
      "oauth_client": [
        {
          "client_id": "1012556284511-q1fvg96n19a0mtltsjgo7b1bgif86kdt.apps.googleusercontent.com",
          "client_type": 3
        }
      ],
      "api_key": [
        {
          "current_key": "AIzaSyCWcrL1W3w7MQTqhbtGp4GYtS1cLzaSUeI"
        }
      ],
      "services": {
        "appinvite_service": {
          "other_platform_oauth_client": [
            {
              "client_id": "1012556284511-q1fvg96n19a0mtltsjgo7b1bgif86kdt.apps.googleusercontent.com",
              "client_type": 3
            }
          ]
        }
      }
    }
  ],
  "configuration_version": "1"
}